-------------------------------------------------------------------------------
Test set: sonartest.core.servlets.SimpleServletTest
-------------------------------------------------------------------------------
Tests run: 1, Failures: 0, Errors: 0, Skipped: 0, Time elapsed: 0.106 s - in sonartest.core.servlets.SimpleServletTest
