-------------------------------------------------------------------------------
Test set: sonartest.core.schedulers.SimpleScheduledTaskTest
-------------------------------------------------------------------------------
Tests run: 1, Failures: 0, Errors: 0, Skipped: 0, Time elapsed: 0.12 s - in sonartest.core.schedulers.SimpleScheduledTaskTest
